# Wavefront OBJ created by obj_export_1.1.rb for SketchUp
# Copyright (C) 2006 jim.foltz@gmail.com
#

g 1976
v 3.48089682399017  -39.0943746899507 0.0
v 17.291780357287  -39.0943746899507 0.0
v 17.291780357287  -44.2124848643178 0.0
v 3.48089682399017  -44.2124848643178 0.0
v 3.48089682399017  -39.0943746899507 2.36220469586175
v 3.48089682399017  -44.2124848643178 2.36220469586175
v -17.7475892979956  -39.0943746899507 0.0
v -3.60571726359508  -39.0943746899507 0.0
v -3.60571726359508  -44.2124848643178 0.0
v -17.7475892979956  -44.2124848643178 0.0
v -3.60571726359508  -44.2124848643178 2.36220469586175
v -3.60571726359508  -39.0943746899507 2.36220469586175
v -3.60571726359508  -0.139700005291807 0.0
v 3.48089682399017  -0.139700005291807 0.0
v 3.48089682399017  -46.9900931398832 0.0
v -3.60571726359508  -46.9900931398832 0.0
v 17.291780357287  -44.2124848643178 2.36220469586175
v 17.291780357287  -39.0943746899507 2.36220469586175
v 3.48089682399017  -0.139700005291807 3.54330704379264
v 3.48089682399017  -46.9900931398832 3.54330704379264
v -3.60571726359508  -46.9900931398832 3.54330704379264
v -3.60571726359508  -0.139700005291807 3.54330704379264
v -17.7475892979956  -44.2124848643178 2.36220469586175
v -17.7475892979956  -39.0943746899507 2.36220469586175
f 1 2 3 4 
f 4 1 5 6 
f 7 8 9 10 
f 11 12 8 9 
f 13 14 1 4 15 16 9 8 
f 3 17 6 4 
f 1 5 18 2 
f 3 2 18 17 
f 6 5 1 14 19 20 15 4 
f 5 6 17 18 
f 21 22 13 8 12 11 9 16 
f 15 20 21 16 
f 23 24 7 10 
f 7 24 12 8 
f 9 11 23 10 
f 23 11 12 24 
f 13 22 19 14 
f 21 20 19 22 

